pset4/adder32.vcd
$date
	Mon Feb 16 16:42:30 2026
$end

$version
	Synopsys VCS version T-2022.06_Full64
$end

$timescale
	1ps
$end

$comment Csum: 1 eebc410602bd3ef4 $end


$scope module adder32_tb $end
$var reg 32 ! src1 [31:0] $end
$var reg 32 " src2 [31:0] $end
$var wire 32 # result [31:0] $end
$var integer 32 $ i $end
$var integer 32 % errors $end
$var reg 32 & expected [31:0] $end

$scope task check_add $end
$var reg 32 ' exp_val [31:0] $end
$var reg 160 ( name [160:1] $end
$upscope $end


$scope module uut $end
$var wire 32 ) src1 [31:0] $end
$var wire 32 * src2 [31:0] $end
$var wire 32 # result [31:0] $end
$var wire 9 + carry [8:0] $end

$scope module stage[0].alu_slice $end
$var wire 4 , a [3:0] $end
$var wire 4 - b [3:0] $end
$var wire 1 . cin $end
$var wire 1 / m $end
$var wire 4 0 s [3:0] $end
$var reg 1 1 cout $end
$var reg 4 2 out [3:0] $end
$var reg 4 3 logic [3:0] $end
$var reg 5 4 pr [4:0] $end
$var reg 4 5 pr1 [3:0] $end
$var reg 5 6 arith [4:0] $end
$var reg 1 7 cinbar $end
$var wire 4 8 s_temp [3:0] $end
$var wire 4 9 m_temp [3:0] $end
$var wire 4 : a_temp [3:0] $end
$var wire 4 ; b_temp [3:0] $end
$var wire 1 < cin_temp $end
$upscope $end


$scope module stage[1].alu_slice $end
$var wire 4 = a [3:0] $end
$var wire 4 > b [3:0] $end
$var wire 1 ? cin $end
$var wire 1 @ m $end
$var wire 4 A s [3:0] $end
$var reg 1 B cout $end
$var reg 4 C out [3:0] $end
$var reg 4 D logic [3:0] $end
$var reg 5 E pr [4:0] $end
$var reg 4 F pr1 [3:0] $end
$var reg 5 G arith [4:0] $end
$var reg 1 H cinbar $end
$var wire 4 I s_temp [3:0] $end
$var wire 4 J m_temp [3:0] $end
$var wire 4 K a_temp [3:0] $end
$var wire 4 L b_temp [3:0] $end
$var wire 1 M cin_temp $end
$upscope $end


$scope module stage[2].alu_slice $end
$var wire 4 N a [3:0] $end
$var wire 4 O b [3:0] $end
$var wire 1 P cin $end
$var wire 1 Q m $end
$var wire 4 R s [3:0] $end
$var reg 1 S cout $end
$var reg 4 T out [3:0] $end
$var reg 4 U logic [3:0] $end
$var reg 5 V pr [4:0] $end
$var reg 4 W pr1 [3:0] $end
$var reg 5 X arith [4:0] $end
$var reg 1 Y cinbar $end
$var wire 4 Z s_temp [3:0] $end
$var wire 4 [ m_temp [3:0] $end
$var wire 4 \ a_temp [3:0] $end
$var wire 4 ] b_temp [3:0] $end
$var wire 1 ^ cin_temp $end
$upscope $end


$scope module stage[3].alu_slice $end
$var wire 4 _ a [3:0] $end
$var wire 4 ` b [3:0] $end
$var wire 1 a cin $end
$var wire 1 b m $end
$var wire 4 c s [3:0] $end
$var reg 1 d cout $end
$var reg 4 e out [3:0] $end
$var reg 4 f logic [3:0] $end
$var reg 5 g pr [4:0] $end
$var reg 4 h pr1 [3:0] $end
$var reg 5 i arith [4:0] $end
$var reg 1 j cinbar $end
$var wire 4 k s_temp [3:0] $end
$var wire 4 l m_temp [3:0] $end
$var wire 4 m a_temp [3:0] $end
$var wire 4 n b_temp [3:0] $end
$var wire 1 o cin_temp $end
$upscope $end


$scope module stage[4].alu_slice $end
$var wire 4 p a [3:0] $end
$var wire 4 q b [3:0] $end
$var wire 1 r cin $end
$var wire 1 s m $end
$var wire 4 t s [3:0] $end
$var reg 1 u cout $end
$var reg 4 v out [3:0] $end
$var reg 4 w logic [3:0] $end
$var reg 5 x pr [4:0] $end
$var reg 4 y pr1 [3:0] $end
$var reg 5 z arith [4:0] $end
$var reg 1 { cinbar $end
$var wire 4 | s_temp [3:0] $end
$var wire 4 } m_temp [3:0] $end
$var wire 4 ~ a_temp [3:0] $end
$var wire 4 "! b_temp [3:0] $end
$var wire 1 "" cin_temp $end
$upscope $end


$scope module stage[5].alu_slice $end
$var wire 4 "# a [3:0] $end
$var wire 4 "$ b [3:0] $end
$var wire 1 "% cin $end
$var wire 1 "& m $end
$var wire 4 "' s [3:0] $end
$var reg 1 "( cout $end
$var reg 4 ") out [3:0] $end
$var reg 4 "* logic [3:0] $end
$var reg 5 "+ pr [4:0] $end
$var reg 4 ", pr1 [3:0] $end
$var reg 5 "- arith [4:0] $end
$var reg 1 ". cinbar $end
$var wire 4 "/ s_temp [3:0] $end
$var wire 4 "0 m_temp [3:0] $end
$var wire 4 "1 a_temp [3:0] $end
$var wire 4 "2 b_temp [3:0] $end
$var wire 1 "3 cin_temp $end
$upscope $end


$scope module stage[6].alu_slice $end
$var wire 4 "4 a [3:0] $end
$var wire 4 "5 b [3:0] $end
$var wire 1 "6 cin $end
$var wire 1 "7 m $end
$var wire 4 "8 s [3:0] $end
$var reg 1 "9 cout $end
$var reg 4 ": out [3:0] $end
$var reg 4 "; logic [3:0] $end
$var reg 5 "< pr [4:0] $end
$var reg 4 "= pr1 [3:0] $end
$var reg 5 "> arith [4:0] $end
$var reg 1 "? cinbar $end
$var wire 4 "@ s_temp [3:0] $end
$var wire 4 "A m_temp [3:0] $end
$var wire 4 "B a_temp [3:0] $end
$var wire 4 "C b_temp [3:0] $end
$var wire 1 "D cin_temp $end
$upscope $end


$scope module stage[7].alu_slice $end
$var wire 4 "E a [3:0] $end
$var wire 4 "F b [3:0] $end
$var wire 1 "G cin $end
$var wire 1 "H m $end
$var wire 4 "I s [3:0] $end
$var reg 1 "J cout $end
$var reg 4 "K out [3:0] $end
$var reg 4 "L logic [3:0] $end
$var reg 5 "M pr [4:0] $end
$var reg 4 "N pr1 [3:0] $end
$var reg 5 "O arith [4:0] $end
$var reg 1 "P cinbar $end
$var wire 4 "Q s_temp [3:0] $end
$var wire 4 "R m_temp [3:0] $end
$var wire 4 "S a_temp [3:0] $end
$var wire 4 "T b_temp [3:0] $end
$var wire 1 "U cin_temp $end
$upscope $end

$upscope $end

$upscope $end

$enddefinitions $end

#0
$dumpvars
bxxxxxxxxxxxxxxxxxxxxxxxxxxxxxxxx #
bxxxxxxxxxxxxxxxxxxxxxxxxxxxxxxxx '
bxxxxxxxxxxxxxxxxxxxxxxxxxxxxxxxxxxxxxxxxxxxxxxxxxxxxxxxxxxxxxxxxxxxxxxxxxxxxxxxxxxxxxxxxxxxxxxxxxxxxxxxxxxxxxxxxxxxxxxxxxxxxxxxxxxxxxxxxxxxxxxxxxxxxxxxxxxxxxxxx (
b00000000000000000000000000000000 %
bxxxxxxxxxxxxxxxxxxxxxxxxxxxxxxxx &
bxxxxxxxxxxxxxxxxxxxxxxxxxxxxxxxx $
b00000000000000000000000000000000 !
b00000000000000000000000000000000 "
x7
x1
bxxxx :
bxxxxx 6
bxxxx ;
bxxxx 3
bxxxx 9
bxxxx 2
bxxxxx 4
bxxxx 5
bxxxx 8
xH
xB
bxxxx K
bxxxxx G
bxxxx L
bxxxx D
bxxxx J
bxxxx C
bxxxxx E
bxxxx F
bxxxx I
xY
xS
bxxxx \
bxxxxx X
bxxxx ]
bxxxx U
bxxxx [
bxxxx T
bxxxxx V
bxxxx W
bxxxx Z
xj
xd
bxxxx m
bxxxxx i
bxxxx n
bxxxx f
bxxxx l
bxxxx e
bxxxxx g
bxxxx h
bxxxx k
x{
xu
bxxxx ~
bxxxxx z
bxxxx "!
bxxxx w
bxxxx }
bxxxx v
bxxxxx x
bxxxx y
bxxxx |
x".
x"(
bxxxx "1
bxxxxx "-
bxxxx "2
bxxxx "*
bxxxx "0
bxxxx ")
bxxxxx "+
bxxxx ",
bxxxx "/
x"?
x"9
bxxxx "B
bxxxxx ">
bxxxx "C
bxxxx ";
bxxxx "A
bxxxx ":
bxxxxx "<
bxxxx "=
bxxxx "@
x"P
x"J
bxxxx "S
bxxxxx "O
bxxxx "T
bxxxx "L
bxxxx "R
bxxxx "K
bxxxxx "M
bxxxx "N
bxxxx "Q
b0000 ,
b0000 -
b0000 =
b0000 >
b0000 N
b0000 O
b0000 _
b0000 `
b0000 p
b0000 q
b0000 "#
b0000 "$
b0000 "4
b0000 "5
b0000 "E
b0000 "F
b00000000000000000000000000000000 )
b00000000000000000000000000000000 *
bxxxxxxxx0 +
x?
xP
xa
xr
x"%
x"6
x"G
b1001 0
b1001 A
b1001 R
b1001 c
b1001 t
b1001 "'
b1001 "8
b1001 "I
0.
1/
1@
1Q
1b
1s
1"&
1"7
1"H
x<
xM
x^
xo
x""
x"3
x"D
x"U
$end
#680
0<
17
#720
b0001 9
b0001 J
b0001 [
b0001 l
b0001 }
b0001 "0
b0001 "A
b0001 "R
b1001 "Q
b1001 "@
b1001 "/
b1001 |
b1001 k
b1001 Z
b1001 I
b1001 8
#1000
b0000 :
b0000 K
b0000 \
b0000 m
b0000 ~
b0000 "1
b0000 "B
b0000 "S
b0000 ;
b0000 L
b0000 ]
b0000 n
b0000 "!
b0000 "2
b0000 "C
b0000 "T
b0000 3
b00000 6
01
0?
b0000 2
b0000 D
b0000 U
b0000 f
b0000 w
b0000 "*
b0000 ";
b0000 "L
bxxxxxxx00 +
bxxxxxxxxxxxxxxxxxxxxxxxxxxxx0000 #
#1680
0M
1H
b00000 G
0B
0P
b0000 C
bxxxxxx000 +
bxxxxxxxxxxxxxxxxxxxxxxxx00000000 #
#2360
0^
1Y
b00000 X
0S
0a
b0000 T
bxxxxx0000 +
bxxxxxxxxxxxxxxxxxxxx000000000000 #
#3040
0o
1j
b00000 i
0d
0r
b0000 e
bxxxx00000 +
bxxxxxxxxxxxxxxxx0000000000000000 #
#3720
0""
1{
b00000 z
0u
0"%
b0000 v
bxxx000000 +
bxxxxxxxxxxxx00000000000000000000 #
#4400
0"3
1".
b00000 "-
0"(
0"6
b0000 ")
bxx0000000 +
bxxxxxxxx000000000000000000000000 #
#5080
0"D
1"?
b00000 ">
0"9
0"G
b0000 ":
bx00000000 +
bxxxx0000000000000000000000000000 #
#5760
0"U
1"P
b00000 "O
0"J
b0000 "K
b000000000 +
b00000000000000000000000000000000 #
#20000
b00000000000000000000000000000000 '
b0000000000000000000000000000000000000000000000000000000000000000000000000000000000000000010110100110010101110010011011110010101101011010011001010111001001101111 (
b00000000000000000000000000001010 !
b00000000000000000000000000001010 )
b1010 ,
b00000000000000000000000000010100 "
b00000000000000000000000000010100 *
b0100 -
b0001 >
#21000
b1010 :
b0100 ;
b0001 L
b1110 3
b01110 6
b1110 2
b0001 D
b00001 G
b0001 C
b00000000000000000000000000011110 #
#40000
b00000000000000000000000000011110 '
b0000000000000000000000000000000000000000000000000000000000000000000000000000000000000000000000000000000000110001001100000010000000101011001000000011001000110000 (
b00000000000000000000000000001111 !
b00000000000000000000000000001111 )
b1111 ,
b00000000000000000000000000000001 "
b00000000000000000000000000000001 *
b0001 -
b0000 >
#41000
b1111 :
b0001 ;
b0000 L
b10000 6
11
1?
b0000 2
b0000 D
b00000 G
b0000 C
b000000010 +
b00000000000000000000000000000000 #
#41600
1M
0H
b00001 G
b0001 C
b00000000000000000000000000010000 #
#60000
b00000000000000000000000000010000 '
b0000000000000000000000000000000000000000000000000100001001101111011101010110111001100100011000010111001001111001001000000100001101100001011100100111001001111001 (
b11111111111111111111111111111111 !
b11111111111111111111111111111111 )
b1111 =
b1111 N
b1111 _
b1111 p
b1111 "#
b1111 "4
b1111 "E
#61000
b1111 K
b1111 \
b1111 m
b1111 ~
b1111 "1
b1111 "B
b1111 "S
b1111 D
b10000 G
1B
1P
b0000 C
b1111 U
b01111 X
b1111 T
b1111 f
b01111 i
b1111 e
b1111 w
b01111 z
b1111 v
b1111 "*
b01111 "-
b1111 ")
b1111 ";
b01111 ">
b1111 ":
b1111 "L
b01111 "O
b1111 "K
b000000110 +
b11111111111111111111111100000000 #
#61600
1^
0Y
b10000 X
1S
1a
b0000 T
b000001110 +
b11111111111111111111000000000000 #
#62200
1o
0j
b10000 i
1d
1r
b0000 e
b000011110 +
b11111111111111110000000000000000 #
#62800
1""
0{
b10000 z
1u
1"%
b0000 v
b000111110 +
b11111111111100000000000000000000 #
#63400
1"3
0".
b10000 "-
1"(
1"6
b0000 ")
b001111110 +
b11111111000000000000000000000000 #
#64000
1"D
0"?
b10000 ">
1"9
1"G
b0000 ":
b011111110 +
b11110000000000000000000000000000 #
#64600
1"U
0"P
b10000 "O
1"J
b0000 "K
b111111110 +
b00000000000000000000000000000000 #
#80000
b00000000000000000000000000000000 '
b0000000000000000000000000000000000000000000000000000000001001111011101100110010101110010011001100110110001101111011101110010000001010111011100100110000101110000 (
b10101010101010101010101010101010 !
b10101010101010101010101010101010 )
b1010 ,
b1010 =
b1010 N
b1010 _
b1010 p
b1010 "#
b1010 "4
b1010 "E
b01010101010101010101010101010101 "
b01010101010101010101010101010101 *
b0101 -
b0101 >
b0101 O
b0101 `
b0101 q
b0101 "$
b0101 "5
b0101 "F
#81000
b1010 :
b1010 K
b1010 \
b1010 m
b1010 ~
b1010 "1
b1010 "B
b1010 "S
b0101 ;
b0101 L
b0101 ]
b0101 n
b0101 "!
b0101 "2
b0101 "C
b0101 "T
b1111 3
b01111 6
01
0?
b1111 2
b111111100 +
b00000000000000000000000000001111 #
#81680
0M
1H
b01111 G
0B
0P
b1111 C
b111111000 +
b00000000000000000000000011111111 #
#82360
0^
1Y
b01111 X
0S
0a
b1111 T
b111110000 +
b00000000000000000000111111111111 #
#83040
0o
1j
b01111 i
0d
0r
b1111 e
b111100000 +
b00000000000000001111111111111111 #
#83720
0""
1{
b01111 z
0u
0"%
b1111 v
b111000000 +
b00000000000011111111111111111111 #
#84400
0"3
1".
b01111 "-
0"(
0"6
b1111 ")
b110000000 +
b00000000111111111111111111111111 #
#85080
0"D
1"?
b01111 ">
0"9
0"G
b1111 ":
b100000000 +
b00001111111111111111111111111111 #
#85760
0"U
1"P
b01111 "O
0"J
b1111 "K
b000000000 +
b11111111111111111111111111111111 #
#100000
b11111111111111111111111111111111 '
b0000000000000000000000000000000000000000000000000000000000000000000000000000000000000000000000000100000101101100011101000010000001000010011010010111010001110011 (
b00000000000000000000000000000000 $
b00010010000101010011010100100100 !
b00010010000101010011010100100100 )
b0100 ,
b0010 =
b0101 N
b0011 _
b0101 p
b0001 "#
b0010 "4
b0001 "E
b11000000100010010101111010000001 "
b11000000100010010101111010000001 *
b0001 -
b1000 >
b1110 O
b1001 q
b1000 "$
b0000 "5
b1100 "F
b11010010100111101001001110100101 &
#101000
b0100 :
b0010 K
b0101 \
b0011 m
b0101 ~
b0001 "1
b0010 "B
b0001 "S
b0001 ;
b1000 L
b1110 ]
b1001 "!
b1000 "2
b0000 "C
b1100 "T
b0101 3
b00101 6
b0101 2
b1010 D
b01010 G
b1010 C
b1011 U
b10011 X
1S
1a
b0011 T
b0110 f
b01000 i
b1000 e
b1100 w
b01110 z
b1110 v
b1001 "*
b01001 "-
b1001 ")
b0010 ";
b00010 ">
b0010 ":
b1101 "L
b01101 "O
b1101 "K
b11010010100111101000001110100101 #
b000001000 +
#101600
1o
0j
b01001 i
b1001 e
b11010010100111101001001110100101 #
#120000
b00000000000000000000000000000001 $
b10000100100001001101011000001001 !
b10000100100001001101011000001001 )
b1001 ,
b0000 =
b0110 N
b1101 _
b0100 p
b1000 "#
b0100 "4
b1000 "E
b10110001111100000101011001100011 "
b10110001111100000101011001100011 *
b0011 -
b0110 >
b0110 O
b0000 q
b1111 "$
b0001 "5
b1011 "F
b00110110011101010010110001101100 &
#121000
b1001 :
b0000 K
b0110 \
b1101 m
b0100 ~
b1000 "1
b0100 "B
b1000 "S
b0011 ;
b0110 L
b0110 ]
b0000 "!
b1111 "2
b0001 "C
b1011 "T
b1010 3
b01100 6
b1100 2
b0110 D
b00110 G
b0110 C
b0000 U
b01100 X
0S
0a
b1100 T
b1000 f
b10011 i
1d
1r
b0011 e
b0100 w
b00100 z
b0100 v
b0111 "*
b10111 "-
1"(
1"6
b0111 ")
b0101 ";
b00101 ">
b0101 ":
b0011 "L
b10011 "O
1"J
b0011 "K
b00110101011101000011110001101100 #
b101010000 +
#121600
1""
1"D
0{
b00101 z
b0101 v
0"?
b00110 ">
b0110 ":
b00110110011101010011110001101100 #
#121680
0o
1j
b10010 i
b0010 e
b00110110011101010010110001101100 #
#140000
b00000000000000000000000000000010 $
b00000110101110010111101100001101 !
b00000110101110010111101100001101 )
b1101 ,
b1011 N
b0111 _
b1001 p
b1011 "#
b0110 "4
b0000 "E
b01000110110111111001100110001101 "
b01000110110111111001100110001101 *
b1101 -
b1000 >
b1001 O
b1001 `
b1111 q
b1101 "$
b0110 "5
b0100 "F
b01001101100110010001010010011010 &
#141000
b1101 :
b1011 \
b0111 m
b1001 ~
b1011 "1
b0110 "B
b0000 "S
b1101 ;
b1000 L
b1001 ]
b1001 n
b1111 "!
b1101 "2
b0110 "C
b0100 "T
b0000 3
b11010 6
11
1?
b1010 2
b0010 U
b10100 X
1S
1a
b0100 T
b1110 f
b10000 i
b0000 e
b0110 w
b11001 z
1u
1"%
b1001 v
b0110 "*
b11000 "-
b1000 ")
b0000 ";
b01101 ">
b1101 ":
b0100 "L
b00100 "O
0"J
b0100 "K
b1000 D
b01000 G
b1000 C
b001111010 +
b01001101100010010000010010001010 #
#141600
1M
1o
1"3
0H
b01001 G
b1001 C
0j
b10001 i
b0001 e
0".
b11001 "-
b1001 ")
b01001101100110010001010010011010 #
#160000
b00000000000000000000000000000011 $
b10110010110000101000010001100101 !
b10110010110000101000010001100101 )
b0101 ,
b0110 =
b0100 N
b1000 _
b0010 p
b1100 "#
b0010 "4
b1011 "E
b10001001001101110101001000010010 "
b10001001001101110101001000010010 *
b0010 -
b0001 >
b0010 O
b0101 `
b0111 q
b0011 "$
b1001 "5
b1000 "F
b00111011111110011101011001110111 &
#161000
b0101 :
b0110 K
b0100 \
b1000 m
b0010 ~
b1100 "1
b0010 "B
b1011 "S
b0010 ;
b0001 L
b0010 ]
b0101 n
b0111 "!
b0011 "2
b1001 "C
b1000 "T
b0111 3
b00111 6
01
0?
b0111 2
b0111 D
b01000 G
b1000 C
b0110 U
b00110 X
0S
0a
b0110 T
b1101 f
b01110 i
0d
0r
b1110 e
b0101 w
b01010 z
0u
0"%
b1010 v
b1111 "*
b10000 "-
b0000 ")
b1011 ";
b01100 ">
b1100 ":
b0011 "L
b10011 "O
1"J
b0011 "K
b101000000 +
b00111100000010101110011010000111 #
#161680
0M
0o
0""
0"3
1H
b00111 G
b0111 C
1j
b01101 i
b1101 e
1{
b01001 z
b1001 v
1".
b01111 "-
0"(
0"6
b1111 ")
b00111100111110011101011001110111 #
b100000000 +
#162360
0"D
1"?
b01011 ">
b1011 ":
b00111011111110011101011001110111 #
#180000
b00000000000000000000000000000100 $
b00000000111100111110001100000001 !
b00000000111100111110001100000001 )
b0001 ,
b0000 =
b0011 N
b1110 _
b0011 p
b1111 "#
b0000 "4
b0000 "E
b00000110110101111100110100001101 "
b00000110110101111100110100001101 *
b1101 -
b0000 >
b1101 O
b1100 `
b1101 "$
b0110 "5
b0000 "F
b00000111110010111011000000001110 &
#181000
b0001 :
b0000 K
b0011 \
b1110 m
b0011 ~
b1111 "1
b0000 "B
b0000 "S
b1101 ;
b0000 L
b1101 ]
b1100 n
b1101 "2
b0110 "C
b0000 "T
b1100 3
b01110 6
b1110 2
b0000 D
b00000 G
b0000 C
b1110 U
b10000 X
1S
1a
b0000 T
b0010 f
b11010 i
1d
1r
b1010 e
b0100 w
b01010 z
b1010 v
b0010 "*
b11100 "-
1"(
1"6
b1100 ")
b0110 ";
b00110 ">
b0110 ":
b0000 "L
b00000 "O
0"J
b0000 "K
b00000110110010101010000000001110 #
b001011000 +
#181600
1o
1""
1"D
0j
b11011 i
b1011 e
0{
b01011 z
b1011 v
0"?
b00111 ">
b0111 ":
b00000111110010111011000000001110 #
#200000
b00000000000000000000000000000101 $
b00111011001000111111000101110110 !
b00111011001000111111000101110110 )
b0110 ,
b0111 =
b0001 N
b1111 _
b0010 "#
b1011 "4
b0011 "E
b00011110100011011100110100111101 "
b00011110100011011100110100111101 *
b0011 >
b1101 q
b1000 "$
b1110 "5
b0001 "F
b01011001101100011011111010110011 &
#201000
b0110 :
b0111 K
b0001 \
b1111 m
b0010 "1
b1011 "B
b0011 "S
b0011 L
b1101 "!
b1000 "2
b1110 "C
b0001 "T
b1011 3
b10011 6
11
1?
b0011 2
b0100 D
b01010 G
b1010 C
b1100 U
b01110 X
0S
0a
b1110 T
b0011 f
b11100 i
b1100 e
b1010 "*
b01010 "-
0"(
0"6
b1010 ")
b0101 ";
b11010 ">
1"9
1"G
b1010 ":
b0010 "L
b00100 "O
b0100 "K
b1110 w
b10001 z
1u
1"%
b0001 v
b010110010 +
b01001010101000011100111010100011 #
#201600
1M
1"U
1"3
0H
b01011 G
b1011 C
0"P
b00101 "O
b0101 "K
0".
b01011 "-
b1011 ")
b01011010101100011100111010110011 #
#201680
0o
0"D
1j
b11011 i
b1011 e
1"?
b11001 ">
b1001 ":
b01011001101100011011111010110011 #
#220000
b00000000000000000000000000000110 $
b01110110110101000101011111101101 !
b01110110110101000101011111101101 )
b1101 ,
b1110 =
b0111 N
b0101 _
b0100 p
b1101 "#
b0110 "4
b0111 "E
b01000110001011011111011110001100 "
b01000110001011011111011110001100 *
b1100 -
b1000 >
b0111 O
b1111 `
b0010 "$
b0110 "5
b0100 "F
b10111101000000100100111101111001 &
#221000
b1101 :
b1110 K
b0111 \
b0101 m
b0100 ~
b1101 "1
b0110 "B
b0111 "S
b1100 ;
b1000 L
b0111 ]
b1111 n
b0010 "2
b0110 "C
b0100 "T
b0001 3
b11001 6
b1001 2
b0110 D
b10111 G
1B
1P
b0111 C
b0000 U
b1010 f
b10100 i
b0100 e
b1001 w
b10010 z
b0010 v
b1111 "*
b10000 "-
1"(
1"6
b0000 ")
b0000 ";
b01100 ">
0"9
0"G
b1100 ":
b0011 "L
b01100 "O
b1100 "K
b11001100000000100100111001111001 #
b001110110 +
#221600
1^
1"D
0Y
b01111 X
b1111 T
0"?
b01101 ">
b1101 ":
b11001101000000100100111101111001 #
#221680
0"U
1"P
b01011 "O
b1011 "K
b10111101000000100100111101111001 #
#240000
b00000000000000000000000000000111 $
b01111100111111011110100111111001 !
b01111100111111011110100111111001 )
b1001 ,
b1111 =
b1001 N
b1110 _
b1101 p
b1111 "#
b1100 "4
b11100011001101110010010011000110 "
b11100011001101110010010011000110 *
b0110 -
b1100 >
b0100 O
b0010 `
b0111 q
b0011 "$
b0011 "5
b1110 "F
b01100000001101010000111010111111 &
#241000
b1001 :
b1111 K
b1001 \
b1110 m
b1101 ~
b1111 "1
b1100 "B
b0110 ;
b1100 L
b0100 ]
b0010 n
b0111 "!
b0011 "2
b0011 "C
b1110 "T
b1111 3
b01111 6
01
0?
b1111 2
b0011 D
b11100 G
b1100 C
b1101 U
b01110 X
b1110 T
b1100 f
b10000 i
b0000 e
b1010 w
b10101 z
b0101 v
b1100 "*
b10011 "-
b0011 ")
b1111 ";
b10000 ">
1"9
1"G
b0000 ":
b1001 "L
b10101 "O
1"J
b0101 "K
b111110100 +
b01010000001101010000111011001111 #
#241600
1"U
0"P
b10110 "O
b0110 "K
b01100000001101010000111011001111 #
#241680
0M
1H
b11011 G
b1011 C
b01100000001101010000111010111111 #
#260000
b00000000000000000000000000001000 $
b11100010111101111000010011000101 !
b11100010111101111000010011000101 )
b0101 ,
b1100 =
b0100 N
b1000 _
b0111 p
b0010 "4
b1110 "E
b11010101000100111101001010101010 "
b11010101000100111101001010101010 *
b1010 -
b1010 >
b0010 O
b1101 `
b0011 q
b0001 "$
b0101 "5
b1101 "F
b10111000000010110101011101101111 &
#261000
b0101 :
b1100 K
b0100 \
b1000 m
b0111 ~
b0010 "B
b1110 "S
b1010 ;
b1010 L
b0010 ]
b1101 n
b0011 "!
b0001 "2
b0101 "C
b1101 "T
b0110 D
b10110 G
b0110 C
b0110 U
b00111 X
b0111 T
b0101 f
b10101 i
b0101 e
b0100 w
b01011 z
0u
0"%
b1011 v
b0111 ";
b01000 ">
0"9
0"G
b1000 ":
b0011 "L
b11100 "O
b1100 "K
b1110 "*
b10001 "-
b0001 ")
b11001000000110110101011101101111 #
b101010100 +
#261680
0"3
0"U
1".
b10000 "-
b0000 ")
1"P
b11011 "O
b1011 "K
b10111000000010110101011101101111 #
#280000
b00000000000000000000000000001001 $
b01110010101011111111011111100101 !
b01110010101011111111011111100101 )
b1110 =
b0111 N
b1111 _
b1111 p
b1010 "#
b0111 "E
b10111011110100100111001001110111 "
b10111011110100100111001001110111 *
b0111 -
b0111 >
b0111 `
b0010 q
b1101 "$
b1011 "5
b1011 "F
b00101110100000100110101001011100 &
#281000
b1110 K
b0111 \
b1111 m
b1111 ~
b1010 "1
b0111 "S
b0111 ;
b0111 L
b0111 n
b0010 "!
b1101 "2
b1011 "C
b1011 "T
b1001 D
b10101 G
b0101 C
b0101 U
b01010 X
b1010 T
b1000 f
b10110 i
b0110 e
b1101 w
b10010 z
1u
1"%
b0010 v
b0111 "*
b10111 "-
b0111 ")
b1100 "L
b10010 "O
b0010 "K
b0010 3
b01100 6
b1100 2
b1001 ";
b01110 ">
b1110 ":
b00101110011100100110101001011100 #
b101110100 +
#281600
1"3
0".
b11000 "-
b1000 ")
b00101110100000100110101001011100 #
#300000
b00000000000000000000000000001010 $
b10001001001100101101011000010010 !
b10001001001100101101011000010010 )
b0010 ,
b0001 =
b0110 N
b1101 _
b0010 p
b0011 "#
b1001 "4
b1000 "E
b01000111111011001101101110001111 "
b01000111111011001101101110001111 *
b1111 -
b1000 >
b1011 O
b1101 `
b1100 q
b1110 "$
b0111 "5
b0100 "F
b11010001000111111011000110100001 &
#301000
b0010 :
b0001 K
b0110 \
b1101 m
b0010 ~
b0011 "1
b1001 "B
b1000 "S
b1111 ;
b1000 L
b1011 ]
b1101 n
b1100 "!
b1110 "2
b0111 "C
b0100 "T
b1101 3
b10001 6
11
1?
b0001 2
b01001 G
0B
0P
b1001 C
b1101 U
b10010 X
1S
1a
b0010 T
b0000 f
b11010 i
b1010 e
b1110 w
b01111 z
0u
0"%
b1111 v
b1101 "*
b10010 "-
b0010 ")
b1110 ";
b10001 ">
1"9
1"G
b0001 ":
b01100 "O
0"J
b1100 "K
b011011010 +
b11000001001011111010001010010001 #
#301600
1M
1o
1"U
0H
b01010 G
b1010 C
0j
b11011 i
b1011 e
0"P
b01101 "O
b1101 "K
b11010001001011111011001010100001 #
#301680
0^
0"3
1Y
b10001 X
b0001 T
1".
b10001 "-
b0001 ")
b11010001000111111011000110100001 #
#320000
b00000000000000000000000000001011 $
b01111001001100000110100111110010 !
b01111001001100000110100111110010 )
b1111 =
b1001 N
b0110 _
b0000 p
b0111 "E
b11100111011101101001011011001110 "
b11100111011101101001011011001110 *
b1110 -
b1100 >
b0110 O
b1001 `
b0110 q
b0111 "$
b1110 "F
b01100000101001110000000011000000 &
#321000
b1111 K
b1001 \
b0110 m
b0000 ~
b0111 "S
b1110 ;
b1100 L
b0110 ]
b1001 n
b0110 "!
b0111 "2
b1110 "T
b0011 D
b11100 G
1B
1P
b1100 C
b1111 U
b01111 X
0S
0a
b1111 T
b1111 f
b10000 i
b0000 e
b0110 w
b00111 z
b0111 v
b1001 "L
b10110 "O
1"J
b0110 "K
b1100 3
b10000 6
b0000 2
b0100 "*
b01010 "-
0"(
0"6
b1010 ")
b110010110 +
b01100001101001110000111111000000 #
#321600
1^
0Y
b10000 X
1S
1a
b0000 T
b110011110 +
b01100001101001110000000011000000 #
#321680
0"D
1"?
b10000 ">
b0000 ":
b01100000101001110000000011000000 #
#340000
b00000000000000000000000000001100 $
b11110100000000000111101011101000 !
b11110100000000000111101011101000 )
b1000 ,
b1110 =
b1010 N
b0111 _
b0000 "#
b0100 "4
b1111 "E
b11100010110010100100111011000101 "
b11100010110010100100111011000101 *
b0101 -
b1110 O
b0100 `
b1010 q
b1100 "$
b0010 "5
b11010110110010101100100110101101 &
#341000
b1000 :
b1110 K
b1010 \
b0111 m
b0000 "1
b0100 "B
b1111 "S
b0101 ;
b1110 ]
b0100 n
b1010 "!
b1100 "2
b0010 "C
b1101 3
b01101 6
01
0?
b1101 2
b0010 D
b11011 G
b1011 C
b0100 U
b11001 X
b1001 T
b0011 f
b01100 i
0d
0r
b1100 e
b1100 "*
b01100 "-
b1100 ")
b0110 ";
b00110 ">
0"9
0"G
b0110 ":
b0001 "L
b11110 "O
b1110 "K
b1010 w
b01011 z
b1011 v
b100001100 +
b11100110110010111100100110111101 #
#341680
0M
0""
0"U
1H
b11010 G
b1010 C
1{
b01010 z
b1010 v
1"P
b11101 "O
b1101 "K
b11010110110010101100100110101101 #
#360000
b00000000000000000000000000001101 $
b00101110010110000100100101011100 !
b00101110010110000100100101011100 )
b1100 ,
b0101 =
b1001 N
b0100 _
b1000 p
b0101 "#
b1110 "4
b0010 "E
b11011110100011100010100010111101 "
b11011110100011100010100010111101 *
b1101 -
b1011 >
b1000 O
b0010 `
b1110 q
b1000 "$
b1110 "5
b1101 "F
b00001100111001100111001000011001 &
#361000
b1100 :
b0101 K
b1001 \
b0100 m
b1000 ~
b0101 "1
b1110 "B
b0010 "S
b1101 ;
b1011 L
b1000 ]
b0010 n
b1110 "!
b1000 "2
b1110 "C
b1101 "T
b0001 3
b11001 6
11
1?
b1001 2
b1110 D
b10000 G
b0000 C
b0001 U
b10010 X
b0010 T
b0110 f
b00111 i
b0111 e
b0110 w
b10110 z
1u
1"%
b0110 v
b1101 "*
b01101 "-
b1101 ")
b0000 ";
b11100 ">
1"9
1"G
b1100 ":
b1111 "L
b01111 "O
0"J
b1111 "K
b010101110 +
b11111100110101100111001000001001 #
#361600
1M
1"3
1"U
0H
b10001 G
b0001 C
0".
b01110 "-
b1110 ")
0"P
b10000 "O
1"J
b0000 "K
b00001100111001100111001000011001 #
b110101110 +
