pset4/fetch_stage_v2.vcd
$date
	Mon Feb 16 20:11:11 2026
$end

$version
	Synopsys VCS version T-2022.06_Full64
$end

$timescale
	1ps
$end

$comment Csum: 1 eb1f4de1dd48ebb2 $end


$scope module fetch_stage_tb2 $end
$var reg 1 ! clk $end
$var reg 1 " pc_we $end
$var reg 32 # pc [31:0] $end
$var reg 32 $ jmp_target [31:0] $end
$var reg 1 % is_jmp $end
$var reg 1 & is_halt $end
$var wire 40 ' instr [39:0] $end
$var wire 32 ( next_pc [31:0] $end
$var integer 32 ) errors $end
$var integer 32 * f $end

$scope task check_pc $end
$var reg 32 + exp [31:0] $end
$var reg 160 , name [160:1] $end
$upscope $end


$scope module uut $end
$var wire 1 - clk $end
$var wire 1 . pc_we $end
$var wire 32 / pc [31:0] $end
$var wire 32 0 jmp_target [31:0] $end
$var wire 1 1 is_jmp $end
$var wire 1 2 is_halt $end
$var wire 40 ' instr [39:0] $end
$var wire 32 ( next_pc [31:0] $end
$var reg 3 3 current_length [2:0] $end
$var wire 8 4 opcode [7:0] $end
$var wire 1 5 update_enable $end
$var wire 32 6 candidate_pc [31:0] $end

$scope module imem $end
$var wire 32 / pc [31:0] $end
$var wire 40 ' instr [39:0] $end
$upscope $end

$upscope $end

$upscope $end

$enddefinitions $end

#0
$dumpvars
0!
0&
0%
1"
15
02
01
1.
b00000000000000000000000000000001 6
bxxxxxxxxxxxxxxxxxxxxxxxxxxxxxxxx +
bxxxxxxxxxxxxxxxxxxxxxxxxxxxxxxxxxxxxxxxxxxxxxxxxxxxxxxxxxxxxxxxxxxxxxxxxxxxxxxxxxxxxxxxxxxxxxxxxxxxxxxxxxxxxxxxxxxxxxxxxxxxxxxxxxxxxxxxxxxxxxxxxxxxxxxxxxxxxxxxx ,
b001 3
b00000000000000000000000000000000 )
b10000000000000000000000000000011 *
b0000000010000011000000000000000110010000 '
b00000000000000000000000000000000 $
b00000000000000000000000000000001 (
b10010000 4
b00000000000000000000000000000000 #
b00000000000000000000000000000000 0
b00000000000000000000000000000000 /
0-
$end
#5000
1!
1-
#6000
b00000000000000000000000000000001 +
b0000000000000000001100010010110101000010011110010111010001100101001000000100100101101110011100110111010001110010001000000010100001001110010011110101000000101001 ,
b00000000000000000000000000000001 #
b00000000000000000000000000000001 /
b0000000000000000100000110000000000000001 '
b00000001 4
b00000000000000000000000000000010 6
b010 3
b00000000000000000000000000000010 (
b00000000000000000000000000000011 6
b00000000000000000000000000000011 (
#10000
0!
0-
#11000
b00000000000000000000000000000011 +
b0000000000000000001100100010110101000010011110010111010001100101001000000100100101101110011100110111010001110010001000000010100001000001010001000100010000101001 ,
b00000000000000000000000000000011 #
b00000000000000000000000000000011 /
b0000000010111000000000000000000010000011 '
b10000011 4
b00000000000000000000000000000101 6
b011 3
b00000000000000000000000000000101 (
b00000000000000000000000000000110 6
b00000000000000000000000000000110 (
#15000
1!
1-
#16000
b00000000000000000000000000000110 +
b0111100101110100011001010010000001001001011011100111001101110100011100100010000000101000010000010100010001000100001000000110100101101101011011010011100000101001 ,
b00000000000000000000000000000110 #
b00000000000000000000000000000110 /
b0000000000000000000000000000000010111000 '
b10111000 4
b00000000000000000000000000001001 6
b101 3
b00000000000000000000000000001001 (
b00000000000000000000000000001011 6
b00000000000000000000000000001011 (
#20000
0!
0-
#21000
b00000000000000000000000000001011 +
b0000000000000000001101010010110101000010011110010111010001100101001000000100100101101110011100110111010001110010001000000010100001001101010011110101011000101001 ,
b00000000000000000000000000000000 #
b00000000000000000000000000000000 /
1%
11
b11011110101011011011111011101111 $
b11011110101011011011111011101111 0
b0000000010000011000000000000000110010000 '
b10010000 4
b11011110101011011011111011101111 6
b001 3
b11011110101011011011111011101111 (
#25000
1!
1-
#26000
b11011110101011011011111011101111 +
b0000000000000000000000000000000000000000000000000000000001001010011101010110110101110000001000000101000001110010011010010110111101110010011010010111010001111001 ,
0%
01
b00000000000000000000000000000110 #
b00000000000000000000000000000110 /
1&
12
05
b00000000000000000000000000000111 6
b0000000000000000000000000000000010111000 '
b10111000 4
b00000000000000000000000000000110 (
b101 3
b00000000000000000000000000001011 6
#30000
0!
0-
#31000
b00000000000000000000000000000110 +
b0000000000000000000000000000000000000000000000000000000001001000011000010110110001110100001000000010100001000110011100100110010101100101011110100110010100101001 ,
0&
02
15
0"
0.
05
#35000
1!
1-
#36000
b0110010100100000010001010110111001100001011000100110110001100101001000000100110001101111011101110010000000101000010100110111010001100001011011000110110000101001 ,
1"
1.
15
